{
  "type": "service_account",
  "project_id": "alohaus-bb221",
  "private_key_id": "a8e423c0019e2a81409c78d444f171344cc2383b",
  "private_key": "-----BEGIN PRIVATE KEY-----\nMIIEvwIBADANBgkqhkiG9w0BAQEFAASCBKkwggSlAgEAAoIBAQDW3yINi2N2UKMB\neuyLjxquA08RsZP0HThEBdMne2pjoUygFUp+dKZ2UyplygZfpXyIJkUOd5nFZP88\nWl0iniPAvG6oKsmJ4pPIWU7hPI/66Gw87TiGczKfqoqHXjr3e0mdvfxGlTLS6BXT\nq8QHDuJiGDkK5fcy+VrWjGCpw2ujZr4zMqEmFuZIDg6pOoboiyDLZmNOSbvbgbng\nPP0ZFILamSZdPD6QJG2H6Wi6k2naLs6LMGGdtENFqdSlT9+QOdmQPvaWS6KnId68\navZPlcaWjW9JNiMAeZMp0k102wkWkLPivyjcz3ruYRHMRB5uXseF2RWAZtnXOToa\nIFuaHbbLAgMBAAECggEAHzS8z1bFFTPU2Kwvmn0oFMmqPBmcMUHlIAvwhLVp2Bpe\n9IjjDsaGPn0JlUrn7hAsq+FS+izoikCGyQ8eo55v9tfnAklkh7/+UoSV7iRLjNcg\nkSCqquwkGAg+ojZPPg4LvPsQnnegr/zA3sL9b0D8I978udZ4NlD8nlg42a7l/Q70\nwFBzWFQzJqCjyso9YcsX+QGHBbykYwnW7ChDugRsRUpiwyStt59DuIPMOMz2ZcxU\nvGigZ9vpE/fGUs66NXdmxmoWMuT5FYvw+/rXT4ITSFdgSyKSyq5SEkU8j9AOA7+R\ngLE7AqzwCEitYXICNZKK5bB3U+S6MUJEVO4DwyN88QKBgQDv1jp/fgDyTvBcsoKv\nrI3KP9CHBh8q8Fj2456GScAAJ3foFNYoQKQQzVN2pixY/13mmOdEcFzC2J60+hXz\n+VZL+cWNWoR+wKHatNOP+8T8XJX78/ZcXSDi8sv0YxvXLvIflY/9NohoE862Xhmi\nqCzZ0VILB0jfqFPgIXUOTjCilwKBgQDlWjGJnfwlfnlYymRZhQcG7eDYzh6RJHFG\ngqOGFFefbsuajNaZO/K+UKB4HYP5YXCaP+z/r4MMc7DZ/dLhM8JbPh+PgfIs0ObM\nrdDemUdT+obz4lMJJWM2JKVx1u9KVP3QDu0e9PpYlxiv0/VYcY8IAO4wLBWVUnDL\nHoesJ/V37QKBgQDYctS0fvlHtWpDnm9HMEl+v/zn/uReEi+YEXDd7O00tmoGr9de\n2Ie5CjVLHUlkwIL0PAZrw6RTzL/ewNzTJLF3O+HIYmq1IhBwm0Vb6nKq9rv9eP1b\n+khVyZ273z4fA6VMT+R1N6P/mfCysVYdb/2aTsjmXxqrjvSzkD5ePL6z3QKBgQCo\nrEpeUUgNMxR/Tmm6xHDEkdGY4Q3t5IVCO/WTOAaxBETM5uM0UrhVaup5LAvRLe4o\nIvdjm2qfj73ytA+Q/AXmIKwJWKIIf6IdyX8hFk0037y8RCiZQ1vRh+X88PuPCS6Z\nA0E0USqEWKsZNKLtZqawVi7WUrWU2cqGN2/EFqcaiQKBgQCh/QDlSiHJjonWGIG/\ndPH0Gwd4JYbc22UfbbrOQ7EmP0QQrWIX5W16UwPq/wkR08Xjfs/5jsqUMKeb8eHY\nvp+Fi6gp2K6Bfvko5u6maPOPIGtPFaUvPRa+rYosffAKzRBZtyZU+HfeuIw6Qmx0\npda+DazI9eYlqHpCXRv45a5UMw==\n-----END PRIVATE KEY-----\n",
  "client_email": "firebase-adminsdk-clm14@alohaus-bb221.iam.gserviceaccount.com",
  "client_id": "116682124732084696265",
  "auth_uri": "https://accounts.google.com/o/oauth2/auth",
  "token_uri": "https://oauth2.googleapis.com/token",
  "auth_provider_x509_cert_url": "https://www.googleapis.com/oauth2/v1/certs",
  "client_x509_cert_url": "https://www.googleapis.com/robot/v1/metadata/x509/firebase-adminsdk-clm14%40alohaus-bb221.iam.gserviceaccount.com"
}
